
Executed on live									Did not executed on live
------------										--------------------------
2017-07-26 Executed until 1.15 on innoapptest BBBm30w_hnbcallcenter DB			version 1.21 not executed
2017-07-31 Executed until 1.18 on innoapptest BBBm30w_hnbcallcenter DB
	   Executed until 1.20 on innoapptest BBBm30w_hnbcallcenter DB